Literals
! true: should be false  false
! false: should be true true

Locals
! a: should be false     false
! b: should be true  false
b = ! b: should be true  false
b: should be true  false

More complex
!(2 > 3): should be true  true
! ! b: should be true  false
