---INTEGERS---
11: 11
x1 44: 44
x 44: 44
after 10: 10
after 5: 5
after 999: 999
after 44: 44
---FLOATS---
11.11: 11.11
y1 44.44: 44.44
y 44.44: 44.44
after 1.10: 1.10
after 5.50: 5.50
after 999.99: 999.99
after 44.44: 44.44
---BOOLS---
false: false
c1 true: true
after true: true
after true: true
