Error, "phase2/check9/typedef_bad.rc": 
  Initialization value of type INTEGER not assignable to constant/variable of type bool.
Error, "phase2/check9/typedef_bad.rc": 
  Initialization value of type FLUFFY not assignable to constant/variable of type bool.
Error, "phase2/check9/typedef_bad.rc": 
  Initialization value of type FLUFFY not assignable to constant/variable of type int.
Error, "phase2/check9/typedef_bad.rc": 
  Incompatible type FLUFFY to binary operator %, equivalent to int expected.
Error, "phase2/check9/typedef_bad.rc": 
  Incompatible type INTEGER to binary operator &&, equivalent to bool expected.
Compile: failure.
