Error, "phase3/check18b/funcptr_init_bad.rc": 
  Initialization value of type int not assignable to constant/variable of type funcptr : int ().
Error, "phase3/check18b/funcptr_init_bad.rc": 
  Initialization value of type funcptr : int ()* not assignable to constant/variable of type funcptr : int ().
Compile: failure.
